package rules
 
import com.ct.model.VMInternal;
rule "has Exceptions"
	when 
		vMInternalObj: VMInternal(type=="EXCEPTION")
	then
		vMInternalObj.setErrorCode(15);
	end
rule "has warnings"
	when 
		vMInternalObj: VMInternal(type=="WARNING")
	then
		vMInternalObj.setErrorCode(25);
	end