package rules
 
import com.vikson.data.model.ViksonModel;
rule "has Exceptions"
	when 
		vmdl: ViksonModel(type=="EXCEPTION")
	then
		vmdl.setErrorCode(15);
	end
rule "has warnings"
	when 
		vmdl: ViksonModel(type=="WARNING")
	then
		vmdl.setErrorCode(25);
	end